<svg height="512" viewBox="0 0 64 64" width="512"
  xmlns="http://www.w3.org/2000/svg">
  <g id="Ebook-4" data-name="Ebook">
    <path d="m61 52h-1v-37a5.006 5.006 0 0 0 -5-5h-4v-5a1 1 0 0 0 -1-1h-3v-1a1 1 0 0 0 -1-1h-10a4.982 4.982 0 0 0 -4 2.031 4.982 4.982 0 0 0 -4-2.031h-10a1 1 0 0 0 -1 1v1h-3a1 1 0 0 0 -1 1v5h-4a5.006 5.006 0 0 0 -5 5v37h-1a1 1 0 0 0 -1 1v4a5.006 5.006 0 0 0 5 5h50a5.006 5.006 0 0 0 5-5v-4a1 1 0 0 0 -1-1zm-25-48h9v26h-12v-23a3 3 0 0 1 3-3zm-17 0h9a3 3 0 0 1 3 3v23h-12zm-4 2h2v25a1 1 0 0 0 1 1h28a1 1 0 0 0 1-1v-25h2v28h-34zm35 30a1 1 0 0 0 1-1v-20h4v33h-46v-33h4v20a1 1 0 0 0 1 1zm-44-21a3 3 0 0 1 3-3h4v1h-4a2 2 0 0 0 -2 2v34a1 1 0 0 0 1 1h48a1 1 0 0 0 1-1v-34a2 2 0 0 0 -2-2h-4v-1h4a3 3 0 0 1 3 3v37h-16a1 1 0 0 0 -1 1v2a1 1 0 0 1 -1 1h-16a1 1 0 0 1 -1-1v-2a1 1 0 0 0 -1-1h-16zm54 42a3 3 0 0 1 -3 3h-50a3 3 0 0 1 -3-3v-3h17v1a3 3 0 0 0 3 3h16a3 3 0 0 0 3-3v-1h17z" fill="#fff"/>
    <path d="m27 52h10v2h-10z" fill="#fff"/>
    <path d="m8 56h2v2h-2z" fill="#fff"/>
    <path d="m12 56h2v2h-2z" fill="#fff"/>
    <path d="m16 56h2v2h-2z" fill="#fff"/>
    <path d="m46 56h2v2h-2z" fill="#fff"/>
    <path d="m50 56h2v2h-2z" fill="#fff"/>
    <path d="m54 56h2v2h-2z" fill="#fff"/>
    <path d="m21 10h8v2h-8z" fill="#fff"/>
    <path d="m21 6h8v2h-8z" fill="#fff"/>
    <path d="m21 14h8v2h-8z" fill="#fff"/>
    <path d="m21 18h8v2h-8z" fill="#fff"/>
    <path d="m21 22h8v2h-8z" fill="#fff"/>
    <path d="m21 26h8v2h-8z" fill="#fff"/>
    <path d="m39 10h4v2h-4z" fill="#fff"/>
    <path d="m39 6h4v2h-4z" fill="#fff"/>
    <path d="m39 14h4v2h-4z" fill="#fff"/>
    <path d="m39 18h4v2h-4z" fill="#fff"/>
    <path d="m35 6h2v2h-2z" fill="#fff"/>
    <path d="m35 10h2v2h-2z" fill="#fff"/>
    <path d="m35 14h2v2h-2z" fill="#fff"/>
    <path d="m35 18h2v2h-2z" fill="#fff"/>
    <path d="m39 22h4v2h-4z" fill="#fff"/>
    <path d="m39 26h4v2h-4z" fill="#fff"/>
    <path d="m35 22h2v2h-2z" fill="#fff"/>
    <path d="m35 26h2v2h-2z" fill="#fff"/>
    <path d="m51 44h2v2h-2z" fill="#fff"/>
    <path d="m41 44h8v2h-8z" fill="#fff"/>
  </g>
</svg>
